%YAML 1.1
%TAG !u! tag:unity3d.com,2011:
--- !u!1 &2384388949167512491
GameObject:
  m_ObjectHideFlags: 0
  m_CorrespondingSourceObject: {fileID: 0}
  m_PrefabInstance: {fileID: 0}
  m_PrefabAsset: {fileID: 0}
  serializedVersion: 6
  m_Component:
  - component: {fileID: 7153534724352717727}
  - component: {fileID: 6670290411615574963}
  m_Layer: 31
  m_Name: Tile Set 1
  m_TagString: Untagged
  m_Icon: {fileID: 0}
  m_NavMeshLayer: 0
  m_StaticEditorFlags: 0
  m_IsActive: 1
--- !u!4 &7153534724352717727
Transform:
  m_ObjectHideFlags: 0
  m_CorrespondingSourceObject: {fileID: 0}
  m_PrefabInstance: {fileID: 0}
  m_PrefabAsset: {fileID: 0}
  m_GameObject: {fileID: 2384388949167512491}
  serializedVersion: 2
  m_LocalRotation: {x: 0, y: 0, z: 0, w: 1}
  m_LocalPosition: {x: 0, y: 0, z: 0}
  m_LocalScale: {x: 1, y: 1, z: 1}
  m_ConstrainProportionsScale: 0
  m_Children:
  - {fileID: 1759467161430717810}
  m_Father: {fileID: 0}
  m_LocalEulerAnglesHint: {x: 0, y: 0, z: 0}
--- !u!156049354 &6670290411615574963
Grid:
  m_ObjectHideFlags: 0
  m_CorrespondingSourceObject: {fileID: 0}
  m_PrefabInstance: {fileID: 0}
  m_PrefabAsset: {fileID: 0}
  m_GameObject: {fileID: 2384388949167512491}
  m_Enabled: 1
  m_CellSize: {x: 3.75, y: 4, z: 0}
  m_CellGap: {x: 0, y: 0, z: 0}
  m_CellLayout: 0
  m_CellSwizzle: 0
--- !u!1 &3869625592012119323
GameObject:
  m_ObjectHideFlags: 0
  m_CorrespondingSourceObject: {fileID: 0}
  m_PrefabInstance: {fileID: 0}
  m_PrefabAsset: {fileID: 0}
  serializedVersion: 6
  m_Component:
  - component: {fileID: 1759467161430717810}
  - component: {fileID: 562509091854841518}
  - component: {fileID: 2727645796098071498}
  m_Layer: 0
  m_Name: Layer1
  m_TagString: Untagged
  m_Icon: {fileID: 0}
  m_NavMeshLayer: 0
  m_StaticEditorFlags: 0
  m_IsActive: 1
--- !u!4 &1759467161430717810
Transform:
  m_ObjectHideFlags: 0
  m_CorrespondingSourceObject: {fileID: 0}
  m_PrefabInstance: {fileID: 0}
  m_PrefabAsset: {fileID: 0}
  m_GameObject: {fileID: 3869625592012119323}
  serializedVersion: 2
  m_LocalRotation: {x: -0, y: -0, z: -0, w: 1}
  m_LocalPosition: {x: 0, y: 0, z: 0}
  m_LocalScale: {x: 1, y: 1, z: 1}
  m_ConstrainProportionsScale: 0
  m_Children: []
  m_Father: {fileID: 7153534724352717727}
  m_LocalEulerAnglesHint: {x: 0, y: 0, z: 0}
--- !u!1839735485 &562509091854841518
Tilemap:
  m_ObjectHideFlags: 0
  m_CorrespondingSourceObject: {fileID: 0}
  m_PrefabInstance: {fileID: 0}
  m_PrefabAsset: {fileID: 0}
  m_GameObject: {fileID: 3869625592012119323}
  m_Enabled: 1
  m_Tiles:
  - first: {x: -2, y: -12, z: 0}
    second:
      serializedVersion: 2
      m_TileIndex: 41
      m_TileSpriteIndex: 21
      m_TileMatrixIndex: 0
      m_TileColorIndex: 0
      m_TileObjectToInstantiateIndex: 65535
      dummyAlignment: 0
      m_AllTileFlags: 1073741825
  - first: {x: -1, y: -12, z: 0}
    second:
      serializedVersion: 2
      m_TileIndex: 52
      m_TileSpriteIndex: 22
      m_TileMatrixIndex: 0
      m_TileColorIndex: 0
      m_TileObjectToInstantiateIndex: 65535
      dummyAlignment: 0
      m_AllTileFlags: 1073741825
  - first: {x: 0, y: -12, z: 0}
    second:
      serializedVersion: 2
      m_TileIndex: 39
      m_TileSpriteIndex: 31
      m_TileMatrixIndex: 0
      m_TileColorIndex: 0
      m_TileObjectToInstantiateIndex: 65535
      dummyAlignment: 0
      m_AllTileFlags: 1073741825
  - first: {x: 1, y: -12, z: 0}
    second:
      serializedVersion: 2
      m_TileIndex: 54
      m_TileSpriteIndex: 35
      m_TileMatrixIndex: 0
      m_TileColorIndex: 0
      m_TileObjectToInstantiateIndex: 65535
      dummyAlignment: 0
      m_AllTileFlags: 1073741825
  - first: {x: -2, y: -11, z: 0}
    second:
      serializedVersion: 2
      m_TileIndex: 34
      m_TileSpriteIndex: 19
      m_TileMatrixIndex: 0
      m_TileColorIndex: 0
      m_TileObjectToInstantiateIndex: 65535
      dummyAlignment: 0
      m_AllTileFlags: 1073741825
  - first: {x: -1, y: -11, z: 0}
    second:
      serializedVersion: 2
      m_TileIndex: 43
      m_TileSpriteIndex: 32
      m_TileMatrixIndex: 0
      m_TileColorIndex: 0
      m_TileObjectToInstantiateIndex: 65535
      dummyAlignment: 0
      m_AllTileFlags: 1073741825
  - first: {x: 0, y: -11, z: 0}
    second:
      serializedVersion: 2
      m_TileIndex: 48
      m_TileSpriteIndex: 33
      m_TileMatrixIndex: 0
      m_TileColorIndex: 0
      m_TileObjectToInstantiateIndex: 65535
      dummyAlignment: 0
      m_AllTileFlags: 1073741825
  - first: {x: 1, y: -11, z: 0}
    second:
      serializedVersion: 2
      m_TileIndex: 29
      m_TileSpriteIndex: 29
      m_TileMatrixIndex: 0
      m_TileColorIndex: 0
      m_TileObjectToInstantiateIndex: 65535
      dummyAlignment: 0
      m_AllTileFlags: 1073741825
  - first: {x: -2, y: -10, z: 0}
    second:
      serializedVersion: 2
      m_TileIndex: 44
      m_TileSpriteIndex: 18
      m_TileMatrixIndex: 0
      m_TileColorIndex: 0
      m_TileObjectToInstantiateIndex: 65535
      dummyAlignment: 0
      m_AllTileFlags: 1073741825
  - first: {x: -1, y: -10, z: 0}
    second:
      serializedVersion: 2
      m_TileIndex: 35
      m_TileSpriteIndex: 30
      m_TileMatrixIndex: 0
      m_TileColorIndex: 0
      m_TileObjectToInstantiateIndex: 65535
      dummyAlignment: 0
      m_AllTileFlags: 1073741825
  - first: {x: 0, y: -10, z: 0}
    second:
      serializedVersion: 2
      m_TileIndex: 53
      m_TileSpriteIndex: 24
      m_TileMatrixIndex: 0
      m_TileColorIndex: 0
      m_TileObjectToInstantiateIndex: 65535
      dummyAlignment: 0
      m_AllTileFlags: 1073741825
  - first: {x: 1, y: -10, z: 0}
    second:
      serializedVersion: 2
      m_TileIndex: 49
      m_TileSpriteIndex: 34
      m_TileMatrixIndex: 0
      m_TileColorIndex: 0
      m_TileObjectToInstantiateIndex: 65535
      dummyAlignment: 0
      m_AllTileFlags: 1073741825
  - first: {x: -2, y: -9, z: 0}
    second:
      serializedVersion: 2
      m_TileIndex: 32
      m_TileSpriteIndex: 15
      m_TileMatrixIndex: 0
      m_TileColorIndex: 0
      m_TileObjectToInstantiateIndex: 65535
      dummyAlignment: 0
      m_AllTileFlags: 1073741825
  - first: {x: -1, y: -9, z: 0}
    second:
      serializedVersion: 2
      m_TileIndex: 42
      m_TileSpriteIndex: 16
      m_TileMatrixIndex: 0
      m_TileColorIndex: 0
      m_TileObjectToInstantiateIndex: 65535
      dummyAlignment: 0
      m_AllTileFlags: 1073741825
  - first: {x: 0, y: -9, z: 0}
    second:
      serializedVersion: 2
      m_TileIndex: 55
      m_TileSpriteIndex: 17
      m_TileMatrixIndex: 0
      m_TileColorIndex: 0
      m_TileObjectToInstantiateIndex: 65535
      dummyAlignment: 0
      m_AllTileFlags: 1073741825
  - first: {x: 1, y: -9, z: 0}
    second:
      serializedVersion: 2
      m_TileIndex: 46
      m_TileSpriteIndex: 20
      m_TileMatrixIndex: 0
      m_TileColorIndex: 0
      m_TileObjectToInstantiateIndex: 65535
      dummyAlignment: 0
      m_AllTileFlags: 1073741825
  - first: {x: -2, y: -8, z: 0}
    second:
      serializedVersion: 2
      m_TileIndex: 37
      m_TileSpriteIndex: 11
      m_TileMatrixIndex: 0
      m_TileColorIndex: 0
      m_TileObjectToInstantiateIndex: 65535
      dummyAlignment: 0
      m_AllTileFlags: 1073741825
  - first: {x: -1, y: -8, z: 0}
    second:
      serializedVersion: 2
      m_TileIndex: 47
      m_TileSpriteIndex: 12
      m_TileMatrixIndex: 0
      m_TileColorIndex: 0
      m_TileObjectToInstantiateIndex: 65535
      dummyAlignment: 0
      m_AllTileFlags: 1073741825
  - first: {x: 0, y: -8, z: 0}
    second:
      serializedVersion: 2
      m_TileIndex: 45
      m_TileSpriteIndex: 13
      m_TileMatrixIndex: 0
      m_TileColorIndex: 0
      m_TileObjectToInstantiateIndex: 65535
      dummyAlignment: 0
      m_AllTileFlags: 1073741825
  - first: {x: 1, y: -8, z: 0}
    second:
      serializedVersion: 2
      m_TileIndex: 50
      m_TileSpriteIndex: 14
      m_TileMatrixIndex: 0
      m_TileColorIndex: 0
      m_TileObjectToInstantiateIndex: 65535
      dummyAlignment: 0
      m_AllTileFlags: 1073741825
  - first: {x: -2, y: -7, z: 0}
    second:
      serializedVersion: 2
      m_TileIndex: 36
      m_TileSpriteIndex: 7
      m_TileMatrixIndex: 0
      m_TileColorIndex: 0
      m_TileObjectToInstantiateIndex: 65535
      dummyAlignment: 0
      m_AllTileFlags: 1073741825
  - first: {x: -1, y: -7, z: 0}
    second:
      serializedVersion: 2
      m_TileIndex: 38
      m_TileSpriteIndex: 8
      m_TileMatrixIndex: 0
      m_TileColorIndex: 0
      m_TileObjectToInstantiateIndex: 65535
      dummyAlignment: 0
      m_AllTileFlags: 1073741825
  - first: {x: 0, y: -7, z: 0}
    second:
      serializedVersion: 2
      m_TileIndex: 30
      m_TileSpriteIndex: 9
      m_TileMatrixIndex: 0
      m_TileColorIndex: 0
      m_TileObjectToInstantiateIndex: 65535
      dummyAlignment: 0
      m_AllTileFlags: 1073741825
  - first: {x: 1, y: -7, z: 0}
    second:
      serializedVersion: 2
      m_TileIndex: 51
      m_TileSpriteIndex: 10
      m_TileMatrixIndex: 0
      m_TileColorIndex: 0
      m_TileObjectToInstantiateIndex: 65535
      dummyAlignment: 0
      m_AllTileFlags: 1073741825
  - first: {x: -2, y: -6, z: 0}
    second:
      serializedVersion: 2
      m_TileIndex: 21
      m_TileSpriteIndex: 4
      m_TileMatrixIndex: 0
      m_TileColorIndex: 0
      m_TileObjectToInstantiateIndex: 65535
      dummyAlignment: 0
      m_AllTileFlags: 1073741825
  - first: {x: -1, y: -6, z: 0}
    second:
      serializedVersion: 2
      m_TileIndex: 22
      m_TileSpriteIndex: 5
      m_TileMatrixIndex: 0
      m_TileColorIndex: 0
      m_TileObjectToInstantiateIndex: 65535
      dummyAlignment: 0
      m_AllTileFlags: 1073741825
  - first: {x: 0, y: -6, z: 0}
    second:
      serializedVersion: 2
      m_TileIndex: 23
      m_TileSpriteIndex: 23
      m_TileMatrixIndex: 0
      m_TileColorIndex: 0
      m_TileObjectToInstantiateIndex: 65535
      dummyAlignment: 0
      m_AllTileFlags: 1073741825
  - first: {x: 1, y: -6, z: 0}
    second:
      serializedVersion: 2
      m_TileIndex: 24
      m_TileSpriteIndex: 6
      m_TileMatrixIndex: 0
      m_TileColorIndex: 0
      m_TileObjectToInstantiateIndex: 65535
      dummyAlignment: 0
      m_AllTileFlags: 1073741825
  - first: {x: -2, y: -5, z: 0}
    second:
      serializedVersion: 2
      m_TileIndex: 20
      m_TileSpriteIndex: 0
      m_TileMatrixIndex: 0
      m_TileColorIndex: 0
      m_TileObjectToInstantiateIndex: 65535
      dummyAlignment: 0
      m_AllTileFlags: 1073741825
  - first: {x: -1, y: -5, z: 0}
    second:
      serializedVersion: 2
      m_TileIndex: 31
      m_TileSpriteIndex: 1
      m_TileMatrixIndex: 0
      m_TileColorIndex: 0
      m_TileObjectToInstantiateIndex: 65535
      dummyAlignment: 0
      m_AllTileFlags: 1073741825
  - first: {x: 0, y: -5, z: 0}
    second:
      serializedVersion: 2
      m_TileIndex: 40
      m_TileSpriteIndex: 2
      m_TileMatrixIndex: 0
      m_TileColorIndex: 0
      m_TileObjectToInstantiateIndex: 65535
      dummyAlignment: 0
      m_AllTileFlags: 1073741825
  - first: {x: 1, y: -5, z: 0}
    second:
      serializedVersion: 2
      m_TileIndex: 33
      m_TileSpriteIndex: 3
      m_TileMatrixIndex: 0
      m_TileColorIndex: 0
      m_TileObjectToInstantiateIndex: 65535
      dummyAlignment: 0
      m_AllTileFlags: 1073741825
  - first: {x: 5, y: -5, z: 0}
    second:
      serializedVersion: 2
      m_TileIndex: 25
      m_TileSpriteIndex: 25
      m_TileMatrixIndex: 0
      m_TileColorIndex: 0
      m_TileObjectToInstantiateIndex: 65535
      dummyAlignment: 0
      m_AllTileFlags: 1073741825
  - first: {x: 10, y: -5, z: 0}
    second:
      serializedVersion: 2
      m_TileIndex: 27
      m_TileSpriteIndex: 27
      m_TileMatrixIndex: 0
      m_TileColorIndex: 0
      m_TileObjectToInstantiateIndex: 65535
      dummyAlignment: 0
      m_AllTileFlags: 1073741825
  - first: {x: -2, y: -4, z: 0}
    second:
      serializedVersion: 2
      m_TileIndex: 19
      m_TileSpriteIndex: 18
      m_TileMatrixIndex: 0
      m_TileColorIndex: 0
      m_TileObjectToInstantiateIndex: 65535
      dummyAlignment: 0
      m_AllTileFlags: 1073741825
  - first: {x: -1, y: -4, z: 0}
    second:
      serializedVersion: 2
      m_TileIndex: 11
      m_TileSpriteIndex: 11
      m_TileMatrixIndex: 0
      m_TileColorIndex: 0
      m_TileObjectToInstantiateIndex: 65535
      dummyAlignment: 0
      m_AllTileFlags: 1073741825
  - first: {x: 0, y: -4, z: 0}
    second:
      serializedVersion: 2
      m_TileIndex: 12
      m_TileSpriteIndex: 12
      m_TileMatrixIndex: 0
      m_TileColorIndex: 0
      m_TileObjectToInstantiateIndex: 65535
      dummyAlignment: 0
      m_AllTileFlags: 1073741825
  - first: {x: 1, y: -4, z: 0}
    second:
      serializedVersion: 2
      m_TileIndex: 13
      m_TileSpriteIndex: 13
      m_TileMatrixIndex: 0
      m_TileColorIndex: 0
      m_TileObjectToInstantiateIndex: 65535
      dummyAlignment: 0
      m_AllTileFlags: 1073741825
  - first: {x: -2, y: -3, z: 0}
    second:
      serializedVersion: 2
      m_TileIndex: 15
      m_TileSpriteIndex: 15
      m_TileMatrixIndex: 0
      m_TileColorIndex: 0
      m_TileObjectToInstantiateIndex: 65535
      dummyAlignment: 0
      m_AllTileFlags: 1073741825
  - first: {x: -1, y: -3, z: 0}
    second:
      serializedVersion: 2
      m_TileIndex: 16
      m_TileSpriteIndex: 16
      m_TileMatrixIndex: 0
      m_TileColorIndex: 0
      m_TileObjectToInstantiateIndex: 65535
      dummyAlignment: 0
      m_AllTileFlags: 1073741825
  - first: {x: 0, y: -3, z: 0}
    second:
      serializedVersion: 2
      m_TileIndex: 17
      m_TileSpriteIndex: 17
      m_TileMatrixIndex: 0
      m_TileColorIndex: 0
      m_TileObjectToInstantiateIndex: 65535
      dummyAlignment: 0
      m_AllTileFlags: 1073741825
  - first: {x: 1, y: -3, z: 0}
    second:
      serializedVersion: 2
      m_TileIndex: 18
      m_TileSpriteIndex: 20
      m_TileMatrixIndex: 0
      m_TileColorIndex: 0
      m_TileObjectToInstantiateIndex: 65535
      dummyAlignment: 0
      m_AllTileFlags: 1073741825
  - first: {x: -2, y: -2, z: 0}
    second:
      serializedVersion: 2
      m_TileIndex: 11
      m_TileSpriteIndex: 11
      m_TileMatrixIndex: 0
      m_TileColorIndex: 0
      m_TileObjectToInstantiateIndex: 65535
      dummyAlignment: 0
      m_AllTileFlags: 1073741825
  - first: {x: -1, y: -2, z: 0}
    second:
      serializedVersion: 2
      m_TileIndex: 12
      m_TileSpriteIndex: 12
      m_TileMatrixIndex: 0
      m_TileColorIndex: 0
      m_TileObjectToInstantiateIndex: 65535
      dummyAlignment: 0
      m_AllTileFlags: 1073741825
  - first: {x: 0, y: -2, z: 0}
    second:
      serializedVersion: 2
      m_TileIndex: 13
      m_TileSpriteIndex: 13
      m_TileMatrixIndex: 0
      m_TileColorIndex: 0
      m_TileObjectToInstantiateIndex: 65535
      dummyAlignment: 0
      m_AllTileFlags: 1073741825
  - first: {x: 1, y: -2, z: 0}
    second:
      serializedVersion: 2
      m_TileIndex: 14
      m_TileSpriteIndex: 14
      m_TileMatrixIndex: 0
      m_TileColorIndex: 0
      m_TileObjectToInstantiateIndex: 65535
      dummyAlignment: 0
      m_AllTileFlags: 1073741825
  - first: {x: -2, y: -1, z: 0}
    second:
      serializedVersion: 2
      m_TileIndex: 7
      m_TileSpriteIndex: 7
      m_TileMatrixIndex: 0
      m_TileColorIndex: 0
      m_TileObjectToInstantiateIndex: 65535
      dummyAlignment: 0
      m_AllTileFlags: 1073741825
  - first: {x: -1, y: -1, z: 0}
    second:
      serializedVersion: 2
      m_TileIndex: 8
      m_TileSpriteIndex: 8
      m_TileMatrixIndex: 0
      m_TileColorIndex: 0
      m_TileObjectToInstantiateIndex: 65535
      dummyAlignment: 0
      m_AllTileFlags: 1073741825
  - first: {x: 0, y: -1, z: 0}
    second:
      serializedVersion: 2
      m_TileIndex: 9
      m_TileSpriteIndex: 9
      m_TileMatrixIndex: 0
      m_TileColorIndex: 0
      m_TileObjectToInstantiateIndex: 65535
      dummyAlignment: 0
      m_AllTileFlags: 1073741825
  - first: {x: 1, y: -1, z: 0}
    second:
      serializedVersion: 2
      m_TileIndex: 10
      m_TileSpriteIndex: 10
      m_TileMatrixIndex: 0
      m_TileColorIndex: 0
      m_TileObjectToInstantiateIndex: 65535
      dummyAlignment: 0
      m_AllTileFlags: 1073741825
  - first: {x: -2, y: 0, z: 0}
    second:
      serializedVersion: 2
      m_TileIndex: 4
      m_TileSpriteIndex: 4
      m_TileMatrixIndex: 0
      m_TileColorIndex: 0
      m_TileObjectToInstantiateIndex: 65535
      dummyAlignment: 0
      m_AllTileFlags: 1073741825
  - first: {x: -1, y: 0, z: 0}
    second:
      serializedVersion: 2
      m_TileIndex: 5
      m_TileSpriteIndex: 5
      m_TileMatrixIndex: 0
      m_TileColorIndex: 0
      m_TileObjectToInstantiateIndex: 65535
      dummyAlignment: 0
      m_AllTileFlags: 1073741825
  - first: {x: 1, y: 0, z: 0}
    second:
      serializedVersion: 2
      m_TileIndex: 6
      m_TileSpriteIndex: 6
      m_TileMatrixIndex: 0
      m_TileColorIndex: 0
      m_TileObjectToInstantiateIndex: 65535
      dummyAlignment: 0
      m_AllTileFlags: 1073741825
  - first: {x: 5, y: 0, z: 0}
    second:
      serializedVersion: 2
      m_TileIndex: 26
      m_TileSpriteIndex: 26
      m_TileMatrixIndex: 0
      m_TileColorIndex: 0
      m_TileObjectToInstantiateIndex: 65535
      dummyAlignment: 0
      m_AllTileFlags: 1073741825
  - first: {x: 10, y: 0, z: 0}
    second:
      serializedVersion: 2
      m_TileIndex: 28
      m_TileSpriteIndex: 28
      m_TileMatrixIndex: 0
      m_TileColorIndex: 0
      m_TileObjectToInstantiateIndex: 65535
      dummyAlignment: 0
      m_AllTileFlags: 1073741825
  - first: {x: -2, y: 1, z: 0}
    second:
      serializedVersion: 2
      m_TileIndex: 0
      m_TileSpriteIndex: 0
      m_TileMatrixIndex: 0
      m_TileColorIndex: 0
      m_TileObjectToInstantiateIndex: 65535
      dummyAlignment: 0
      m_AllTileFlags: 1073741825
  - first: {x: -1, y: 1, z: 0}
    second:
      serializedVersion: 2
      m_TileIndex: 1
      m_TileSpriteIndex: 1
      m_TileMatrixIndex: 0
      m_TileColorIndex: 0
      m_TileObjectToInstantiateIndex: 65535
      dummyAlignment: 0
      m_AllTileFlags: 1073741825
  - first: {x: 0, y: 1, z: 0}
    second:
      serializedVersion: 2
      m_TileIndex: 2
      m_TileSpriteIndex: 2
      m_TileMatrixIndex: 0
      m_TileColorIndex: 0
      m_TileObjectToInstantiateIndex: 65535
      dummyAlignment: 0
      m_AllTileFlags: 1073741825
  - first: {x: 1, y: 1, z: 0}
    second:
      serializedVersion: 2
      m_TileIndex: 3
      m_TileSpriteIndex: 3
      m_TileMatrixIndex: 0
      m_TileColorIndex: 0
      m_TileObjectToInstantiateIndex: 65535
      dummyAlignment: 0
      m_AllTileFlags: 1073741825
  m_AnimatedTiles: {}
  m_TileAssetArray:
  - m_RefCount: 1
    m_Data: {fileID: 11400000, guid: 8f4bdcbc2ffac2a4c857cf9eb5a6ac5e, type: 2}
  - m_RefCount: 1
    m_Data: {fileID: 11400000, guid: c026f21420c3e3840ac2501d32385d3e, type: 2}
  - m_RefCount: 1
    m_Data: {fileID: 11400000, guid: 949cb8f473695be48b35068f008f7304, type: 2}
  - m_RefCount: 1
    m_Data: {fileID: 11400000, guid: b1f8e0ae6a822c346a8d015adf6894a8, type: 2}
  - m_RefCount: 1
    m_Data: {fileID: 11400000, guid: 0d893b01525f65841b7b266d2f51b55f, type: 2}
  - m_RefCount: 1
    m_Data: {fileID: 11400000, guid: 5f4a73002cdb76f42bc714dfb320ea51, type: 2}
  - m_RefCount: 1
    m_Data: {fileID: 11400000, guid: 5c0b7fa3e7488cf498836370d4d3f6fc, type: 2}
  - m_RefCount: 1
    m_Data: {fileID: 11400000, guid: 825242c1c66690248ba4c49292097114, type: 2}
  - m_RefCount: 1
    m_Data: {fileID: 11400000, guid: 83a19c35674856b4cb19461e8ce6f971, type: 2}
  - m_RefCount: 1
    m_Data: {fileID: 11400000, guid: 5088bc99767a76c4daa43a4bee3640be, type: 2}
  - m_RefCount: 1
    m_Data: {fileID: 11400000, guid: cc7ef86ac29b8db4ebf340433dc3e865, type: 2}
  - m_RefCount: 2
    m_Data: {fileID: 11400000, guid: 331b53fc685eb9748aeb9a47782cdbf0, type: 2}
  - m_RefCount: 2
    m_Data: {fileID: 11400000, guid: e977a3d4b0a19f743a41f74786b0d2ed, type: 2}
  - m_RefCount: 2
    m_Data: {fileID: 11400000, guid: 38f376797bfb1894c87733db17a21889, type: 2}
  - m_RefCount: 1
    m_Data: {fileID: 11400000, guid: 0cf491c78ad7c1b48bd2afdc91ecab9e, type: 2}
  - m_RefCount: 1
    m_Data: {fileID: 11400000, guid: 213d0809a9e6d1143afb6cc467b6fdd7, type: 2}
  - m_RefCount: 1
    m_Data: {fileID: 11400000, guid: c6c7c2a81128e9943a79c46cac8041f6, type: 2}
  - m_RefCount: 1
    m_Data: {fileID: 11400000, guid: 2f452183ab0735547a218d4f3a1607c6, type: 2}
  - m_RefCount: 1
    m_Data: {fileID: 11400000, guid: 296a28de633711241b874a9fb620faa2, type: 2}
  - m_RefCount: 1
    m_Data: {fileID: 11400000, guid: 17fbcc9bfc01b914a835c21c88000f6e, type: 2}
  - m_RefCount: 1
    m_Data: {fileID: 11400000, guid: 1a7c06fcb1e44714bb1f8d0b716dedf4, type: 2}
  - m_RefCount: 1
    m_Data: {fileID: 11400000, guid: 5ba2f6281b160394090d552738c6b4ad, type: 2}
  - m_RefCount: 1
    m_Data: {fileID: 11400000, guid: aac0f9db715cd7d4991a4b2a6cf16b16, type: 2}
  - m_RefCount: 1
    m_Data: {fileID: 11400000, guid: 955ad440f0e13eb4baf6b6ad8a0e9b69, type: 2}
  - m_RefCount: 1
    m_Data: {fileID: 11400000, guid: 9b76d85b275e7654c87377d26d675976, type: 2}
  - m_RefCount: 1
    m_Data: {fileID: 11400000, guid: c42ca3ee83fc23f478dd6123cc86c156, type: 2}
  - m_RefCount: 1
    m_Data: {fileID: 11400000, guid: edbc7fcc555764b4f9763721e503c652, type: 2}
  - m_RefCount: 1
    m_Data: {fileID: 11400000, guid: c151f88f520913240b1e01d81df4bd15, type: 2}
  - m_RefCount: 1
    m_Data: {fileID: 11400000, guid: 8a574af98b67d874b91253c294bd729b, type: 2}
  - m_RefCount: 1
    m_Data: {fileID: 11400000, guid: 4a6a2850f8c264b4187cf96a01be8a10, type: 2}
  - m_RefCount: 1
    m_Data: {fileID: 11400000, guid: 3b9faf1cccf4dba47b331ba79d79d45c, type: 2}
  - m_RefCount: 1
    m_Data: {fileID: 11400000, guid: 9a32bdec7aca3d141883ac4cfbc7a941, type: 2}
  - m_RefCount: 1
    m_Data: {fileID: 11400000, guid: 5e49e73a2e0c44b42a974a11d24c42fb, type: 2}
  - m_RefCount: 1
    m_Data: {fileID: 11400000, guid: 42f3677ed1ec21a4f82bb113bb75e62b, type: 2}
  - m_RefCount: 1
    m_Data: {fileID: 11400000, guid: aa6fb781215e211419a5b24c6881a10f, type: 2}
  - m_RefCount: 1
    m_Data: {fileID: 11400000, guid: 3c8fb44c2f61d534b877ce5c39a19e65, type: 2}
  - m_RefCount: 1
    m_Data: {fileID: 11400000, guid: c76a2da3e609b224baf5c10cb6730b59, type: 2}
  - m_RefCount: 1
    m_Data: {fileID: 11400000, guid: 0877dd1a7bb9b20458f5c0ca54b63a29, type: 2}
  - m_RefCount: 1
    m_Data: {fileID: 11400000, guid: 53d57ea96aedf4145b1cf04cafb7eb2c, type: 2}
  - m_RefCount: 1
    m_Data: {fileID: 11400000, guid: 5816282352be9964995fefd009ee6812, type: 2}
  - m_RefCount: 1
    m_Data: {fileID: 11400000, guid: be7c3d67e99ffb94fb23bd65bfc5be0a, type: 2}
  - m_RefCount: 1
    m_Data: {fileID: 11400000, guid: e07dde3e66ab1114d8c3a958adb485ee, type: 2}
  - m_RefCount: 1
    m_Data: {fileID: 11400000, guid: 7fe2d9c198285b846b4f2ee3f021c710, type: 2}
  - m_RefCount: 1
    m_Data: {fileID: 11400000, guid: c05ae4de5e269654287b547f33354953, type: 2}
  - m_RefCount: 1
    m_Data: {fileID: 11400000, guid: 91b06928ed6910e4085a39254fa64e52, type: 2}
  - m_RefCount: 1
    m_Data: {fileID: 11400000, guid: 3da9e3ba2f18bd843813b37d49e4745b, type: 2}
  - m_RefCount: 1
    m_Data: {fileID: 11400000, guid: 40f61758084c1e945a903a9e2fa2167a, type: 2}
  - m_RefCount: 1
    m_Data: {fileID: 11400000, guid: 3306f1bb2adc2854088eec26709ef33a, type: 2}
  - m_RefCount: 1
    m_Data: {fileID: 11400000, guid: 0d88334e78525de48b4ccce50afa7722, type: 2}
  - m_RefCount: 1
    m_Data: {fileID: 11400000, guid: dc8144934ab2115419f83c50367d6ac5, type: 2}
  - m_RefCount: 1
    m_Data: {fileID: 11400000, guid: 3915f38090db9c440bdf988f6b4f54ee, type: 2}
  - m_RefCount: 1
    m_Data: {fileID: 11400000, guid: 7b95613b24e3244478335854d82c538f, type: 2}
  - m_RefCount: 1
    m_Data: {fileID: 11400000, guid: 5e3f458d12ba69d40b1e9c130acce253, type: 2}
  - m_RefCount: 1
    m_Data: {fileID: 11400000, guid: 680d50784891a6946a55ae809a0954b8, type: 2}
  - m_RefCount: 1
    m_Data: {fileID: 11400000, guid: 4d652986bb180604994c090cb1790051, type: 2}
  - m_RefCount: 1
    m_Data: {fileID: 11400000, guid: a443ce8c4bf032345b6d599329feab25, type: 2}
  m_TileSpriteArray:
  - m_RefCount: 2
    m_Data: {fileID: 21300000, guid: 37d5a575a01d0c84f858df2508788ec4, type: 3}
  - m_RefCount: 2
    m_Data: {fileID: 21300002, guid: 37d5a575a01d0c84f858df2508788ec4, type: 3}
  - m_RefCount: 2
    m_Data: {fileID: 21300004, guid: 37d5a575a01d0c84f858df2508788ec4, type: 3}
  - m_RefCount: 2
    m_Data: {fileID: 21300006, guid: 37d5a575a01d0c84f858df2508788ec4, type: 3}
  - m_RefCount: 2
    m_Data: {fileID: 21300008, guid: 37d5a575a01d0c84f858df2508788ec4, type: 3}
  - m_RefCount: 2
    m_Data: {fileID: 21300010, guid: 37d5a575a01d0c84f858df2508788ec4, type: 3}
  - m_RefCount: 2
    m_Data: {fileID: 21300014, guid: 37d5a575a01d0c84f858df2508788ec4, type: 3}
  - m_RefCount: 2
    m_Data: {fileID: 21300016, guid: 37d5a575a01d0c84f858df2508788ec4, type: 3}
  - m_RefCount: 2
    m_Data: {fileID: 21300018, guid: 37d5a575a01d0c84f858df2508788ec4, type: 3}
  - m_RefCount: 2
    m_Data: {fileID: 21300020, guid: 37d5a575a01d0c84f858df2508788ec4, type: 3}
  - m_RefCount: 2
    m_Data: {fileID: 21300022, guid: 37d5a575a01d0c84f858df2508788ec4, type: 3}
  - m_RefCount: 3
    m_Data: {fileID: 21300024, guid: 37d5a575a01d0c84f858df2508788ec4, type: 3}
  - m_RefCount: 3
    m_Data: {fileID: 21300026, guid: 37d5a575a01d0c84f858df2508788ec4, type: 3}
  - m_RefCount: 3
    m_Data: {fileID: 21300028, guid: 37d5a575a01d0c84f858df2508788ec4, type: 3}
  - m_RefCount: 2
    m_Data: {fileID: 21300030, guid: 37d5a575a01d0c84f858df2508788ec4, type: 3}
  - m_RefCount: 2
    m_Data: {fileID: 21300032, guid: 37d5a575a01d0c84f858df2508788ec4, type: 3}
  - m_RefCount: 2
    m_Data: {fileID: 21300034, guid: 37d5a575a01d0c84f858df2508788ec4, type: 3}
  - m_RefCount: 2
    m_Data: {fileID: 21300036, guid: 37d5a575a01d0c84f858df2508788ec4, type: 3}
  - m_RefCount: 2
    m_Data: {fileID: 21300040, guid: 37d5a575a01d0c84f858df2508788ec4, type: 3}
  - m_RefCount: 1
    m_Data: {fileID: 21300048, guid: 37d5a575a01d0c84f858df2508788ec4, type: 3}
  - m_RefCount: 2
    m_Data: {fileID: 21300038, guid: 37d5a575a01d0c84f858df2508788ec4, type: 3}
  - m_RefCount: 1
    m_Data: {fileID: 21300056, guid: 37d5a575a01d0c84f858df2508788ec4, type: 3}
  - m_RefCount: 1
    m_Data: {fileID: 21300058, guid: 37d5a575a01d0c84f858df2508788ec4, type: 3}
  - m_RefCount: 1
    m_Data: {fileID: 21300012, guid: 37d5a575a01d0c84f858df2508788ec4, type: 3}
  - m_RefCount: 1
    m_Data: {fileID: 21300044, guid: 37d5a575a01d0c84f858df2508788ec4, type: 3}
  - m_RefCount: 1
    m_Data: {fileID: 21300000, guid: ba4c25864e935b546b12854e658949dc, type: 3}
  - m_RefCount: 1
    m_Data: {fileID: 21300002, guid: ba4c25864e935b546b12854e658949dc, type: 3}
  - m_RefCount: 1
    m_Data: {fileID: 21300004, guid: ba4c25864e935b546b12854e658949dc, type: 3}
  - m_RefCount: 1
    m_Data: {fileID: 21300006, guid: ba4c25864e935b546b12854e658949dc, type: 3}
  - m_RefCount: 1
    m_Data: {fileID: 21300054, guid: 37d5a575a01d0c84f858df2508788ec4, type: 3}
  - m_RefCount: 1
    m_Data: {fileID: 21300042, guid: 37d5a575a01d0c84f858df2508788ec4, type: 3}
  - m_RefCount: 1
    m_Data: {fileID: 21300060, guid: 37d5a575a01d0c84f858df2508788ec4, type: 3}
  - m_RefCount: 1
    m_Data: {fileID: 21300050, guid: 37d5a575a01d0c84f858df2508788ec4, type: 3}
  - m_RefCount: 1
    m_Data: {fileID: 21300052, guid: 37d5a575a01d0c84f858df2508788ec4, type: 3}
  - m_RefCount: 1
    m_Data: {fileID: 21300046, guid: 37d5a575a01d0c84f858df2508788ec4, type: 3}
  - m_RefCount: 1
    m_Data: {fileID: 21300062, guid: 37d5a575a01d0c84f858df2508788ec4, type: 3}
  m_TileMatrixArray:
  - m_RefCount: 59
    m_Data:
      e00: 1
      e01: 0
      e02: 0
      e03: 0
      e10: 0
      e11: 1
      e12: 0
      e13: 0
      e20: 0
      e21: 0
      e22: 1
      e23: 0
      e30: 0
      e31: 0
      e32: 0
      e33: 1
  m_TileColorArray:
  - m_RefCount: 59
    m_Data: {r: 1, g: 1, b: 1, a: 1}
  m_TileObjectToInstantiateArray: []
  m_AnimationFrameRate: 1
  m_Color: {r: 1, g: 1, b: 1, a: 1}
  m_Origin: {x: -2, y: -12, z: 0}
  m_Size: {x: 13, y: 14, z: 1}
  m_TileAnchor: {x: 0.5, y: 0.5, z: 0}
  m_TileOrientation: 0
  m_TileOrientationMatrix:
    e00: 1
    e01: 0
    e02: 0
    e03: 0
    e10: 0
    e11: 1
    e12: 0
    e13: 0
    e20: 0
    e21: 0
    e22: 1
    e23: 0
    e30: 0
    e31: 0
    e32: 0
    e33: 1
--- !u!483693784 &2727645796098071498
TilemapRenderer:
  m_ObjectHideFlags: 0
  m_CorrespondingSourceObject: {fileID: 0}
  m_PrefabInstance: {fileID: 0}
  m_PrefabAsset: {fileID: 0}
  m_GameObject: {fileID: 3869625592012119323}
  m_Enabled: 1
  m_CastShadows: 0
  m_ReceiveShadows: 0
  m_DynamicOccludee: 0
  m_StaticShadowCaster: 0
  m_MotionVectors: 1
  m_LightProbeUsage: 0
  m_ReflectionProbeUsage: 0
  m_RayTracingMode: 0
  m_RayTraceProcedural: 0
  m_RenderingLayerMask: 1
  m_RendererPriority: 0
  m_Materials:
  - {fileID: 10754, guid: 0000000000000000f000000000000000, type: 0}
  m_StaticBatchInfo:
    firstSubMesh: 0
    subMeshCount: 0
  m_StaticBatchRoot: {fileID: 0}
  m_ProbeAnchor: {fileID: 0}
  m_LightProbeVolumeOverride: {fileID: 0}
  m_ScaleInLightmap: 1
  m_ReceiveGI: 1
  m_PreserveUVs: 0
  m_IgnoreNormalsForChartDetection: 0
  m_ImportantGI: 0
  m_StitchLightmapSeams: 0
  m_SelectedEditorRenderState: 0
  m_MinimumChartSize: 4
  m_AutoUVMaxDistance: 0.5
  m_AutoUVMaxAngle: 89
  m_LightmapParameters: {fileID: 0}
  m_SortingLayerID: 0
  m_SortingLayer: 0
  m_SortingOrder: 0
  m_ChunkSize: {x: 32, y: 32, z: 32}
  m_ChunkCullingBounds: {x: 1.375, y: 3, z: 0}
  m_MaxChunkCount: 16
  m_MaxFrameAge: 16
  m_SortOrder: 0
  m_Mode: 0
  m_DetectChunkCullingBounds: 0
  m_MaskInteraction: 0
--- !u!114 &4583561130097142373
MonoBehaviour:
  m_ObjectHideFlags: 0
  m_CorrespondingSourceObject: {fileID: 0}
  m_PrefabInstance: {fileID: 0}
  m_PrefabAsset: {fileID: 0}
  m_GameObject: {fileID: 0}
  m_Enabled: 1
  m_EditorHideFlags: 0
  m_Script: {fileID: 12395, guid: 0000000000000000e000000000000000, type: 0}
  m_Name: Palette Settings
  m_EditorClassIdentifier: 
  cellSizing: 0
  m_TransparencySortMode: 0
  m_TransparencySortAxis: {x: 0, y: 0, z: 1}
